{ 
    "id": "201905013", 
    "name": "Dan Joaquin G. Chin",
    "position": "Programmer",
    "status": "Available",
    "personal_objective":"To keep on learning as life goes on.",
    "projects": [ ],
    "skills": {
        "languages": [ 
            {"name":"JAVA", "level":"1"}, 
            {"name":"C", "level":"1"}, 
            {"name":"Python", "level":"2"}, 
            {"name":"PHP", "level":"1"}, 
            {"name":"HTML5", "level":"1"}, 
            {"name":"JavaScript", "level":"1"}, 
            {"name":"CSS", "level":"1"}, 
            {"name":"Visual Basic", "level":"1"}
        ],
        "Platform": [ 
            {"name":"Windows", "level":"2"},
            {"name":"Linux", "level":"1"}
        ],
        "frameworks": [ 
            {"name":"React / React Native","level":"2"}, 
            {"name":"Laravel", "level":"1"}
        ],
        "tools": [ 
            {"name":"VS Code", "level":"3"},
            {"name":"Git", "level":"2"}
        ],
        "others": [ 
            {"name":"MySQL", "level":"1"} 
        ]
    },
    "working_experience": [
    ],
    "trainings_education": [
        {
        "title":"Bachelor of Science in Computer Science",
        "date":"June 2015 - March 2019",
        "description": "Successfully graduated as BSCS with the Thesis Title of Detecting Aggression in Dog Barks using Audio Signal Processing and Support Vector Machine."
        }
    ]
}  