{ 
    "id": "201905004", 
    "name": "Jee Lorenz Mercado",
    "position": "Programmer",
    "status": "Available",
    "personal_objective":"A software developer aspiring to work intelligently along with the knowledge achieved for years of studying Computer Science. Directing one's knowledge to create, innovate, and solve real world problems.",
    "projects": [],
    "skills": {
        "languages": [ 
                {"name":"JAVA", "level":"2"}, 
                {"name":"C", "level":"2"},
                {"name":"C++", "level":"2"}, 
                {"name":"C#", "level":"2"}, 
                {"name":"Python", "level":"1"}, 
                {"name":"HTML5", "level":"2"},
                {"name":"Javascript", "level":"2"},
                {"name":"CSS", "level":"2"}
        ],
        "Platform": [ 
                {"name":"Windows", "level":"2"}, 
                {"name":"Android","level":"2"},
                {"name":"Web","level":"2"},
                {"name":"Linux","level":"2"},
                {"name":"Ubuntu","level":"2"}
        ],
        "frameworks": [ 
                {"name":"Angular", "level":"2"}, 
                {"name":"Spring","level":"2"},
                {"name":"Typescript","level":"2"},
                {"name":"Robot OS","level":"1"}
        ],
        "tools": [ 
                {"name":"VS Code", "level":"3"}, 
                {"name":"Visual Studio", "level":"3"}, 
                {"name":"Android Studio","level":"3"},
                {"name":"Photoshop","level":"2"},
                {"name":"Git","level":"2"}
            ],
        "others": [ 
                {"name":"jQuery", "level":"2"},
                {"name":"SASS","level":"1"},
                {"name":"MySQL","level":"2"},
                {"name":"Google SQL/Datastore","level":"2"},
                {"name":"Firebase","level":"2"},
                {"name":"Japanese","level":"1"}
        ]
    },
    "working_experience": [
        {
        "position":"Intern",
        "date":"April 2018 - June 2018",
        "task": "Develop a web application"
        }
    ],
    "trainings_education": [
        {
        "title":"Bachelor of Science in Computer Science",
        "date":"October 2018 - March 2019",
        "description": "Graduated from Cebu Institute of Technology - University."
        }
    ]
}  